../input/train/Type_3/111.jpeg	0	256	0	256
../input/train/Type_3/995.jpeg	24	202	41	138
../input/train/Type_3/1401.jpeg	90	191	26	157
../input/train/Type_3/986.jpeg	17	186	40	159
../input/train/Type_3/1060.jpeg	43	149	56	212
../input/train/Type_3/931.jpeg	59	185	70	235
../input/train/Type_3/1448.jpeg	72	173	47	207
../input/train/Type_3/1165.jpeg	87	163	65	184
../input/train/Type_3/323.jpeg	36	204	21	175
../input/train/Type_3/179.jpeg	180	86	155	71
../input/train/Type_3/770.jpeg	56	205	108	216
../input/train/Type_3/1287.jpeg	14	224	56	216
../input/train/Type_3/1062.jpeg	16	165	50	154
../input/train/Type_3/1015.jpeg	54	180	73	169
../input/train/Type_3/106.jpeg	53	191	54	186
../input/train/Type_3/968.jpeg	3	204	45	236
../input/train/Type_3/344.jpeg	224	16	190	3
../input/train/Type_3/200.jpeg	43	212	24	186
../input/train/Type_3/336.jpeg	27	239	30	201
../input/train/Type_3/307.jpeg	1	255	5	251
../input/train/Type_3/3.jpeg	50	175	107	209
../input/train/Type_3/261.jpeg	15	251	17	194
../input/train/Type_3/188.jpeg	43	253	67	174
../input/train/Type_3/952.jpeg	62	237	112	239
../input/train/Type_3/459.jpeg	5	212	37	234
../input/train/Type_3/1434.jpeg	244	-1	141	-9
../input/train/Type_3/876.jpeg	18	205	23	194
../input/train/Type_3/114.jpeg	46	160	39	130
../input/train/Type_3/363.jpeg	31	124	139	197
../input/train/Type_3/1382.jpeg	53	173	99	191
../input/train/Type_3/924.jpeg	73	192	38	238
../input/train/Type_3/357.jpeg	31	156	84	180
../input/train/Type_3/1182.jpeg	20	198	45	164
../input/train/Type_3/1360.jpeg	8	248	6	211
../input/train/Type_3/1095.jpeg	16	231	51	208
../input/train/Type_3/1221.jpeg	132	246	87	161
../input/train/Type_3/654.jpeg	15	204	56	219
../input/train/Type_3/1088.jpeg	66	199	61	152
../input/train/Type_3/1127.jpeg	34	249	68	239
../input/train/Type_3/98.jpeg	11	224	18	173
../input/train/Type_3/135.jpeg	28	231	33	167
../input/train/Type_3/1163.jpeg	4	252	12	180
../input/train/Type_3/118.jpeg	1	253	2	249
../input/train/Type_3/1191.jpeg	30	200	48	192
../input/train/Type_3/1081.jpeg	176	53	181	66
../input/train/Type_3/840.jpeg	47	204	51	160
../input/train/Type_3/392.jpeg	5	254	10	250
../input/train/Type_3/1041.jpeg	182	47	191	81
../input/train/Type_3/1120.jpeg	3	248	4	246
../input/train/Type_3/1259.jpeg	18	201	67	232
../input/train/Type_3/417.jpeg	60	241	78	207
../input/train/Type_3/1400.jpeg	44	260	17	186
../input/train/Type_3/1277.jpeg	36	186	71	154
../input/train/Type_3/721.jpeg	63	227	86	207
../input/train/Type_3/630.jpeg	1	252	6	246
../input/train/Type_3/373.jpeg	64	175	79	170
../input/train/Type_3/5.jpeg	55	188	79	211
../input/train/Type_3/788.jpeg	6	253	5	231
../input/train/Type_3/606.jpeg	44	151	57	108
../input/train/Type_3/872.jpeg	30	181	53	126
../input/train/Type_3/207.jpeg	99	203	73	146
../input/train/Type_3/848.jpeg	24	201	52	145
../input/train/Type_3/304.jpeg	2	248	6	241
../input/train/Type_3/853.jpeg	2	255	8	242
../input/train/Type_3/897.jpeg	169	52	184	66
../input/train/Type_3/1064.jpeg	4	245	4	254
../input/train/Type_3/731.jpeg	55	246	49	212
../input/train/Type_3/1029.jpeg	17	158	54	203
../input/train/Type_3/1101.jpeg	61	176	75	163
../input/train/Type_3/573.jpeg	18	190	36	176
../input/train/Type_3/776.jpeg	37	214	55	188
../input/train/Type_3/902.jpeg	49	195	58	140
../input/train/Type_3/141.jpeg	21	191	84	225
../input/train/Type_3/650.jpeg	24	207	23	189
../input/train/Type_3/590.jpeg	100	201	57	151
../input/train/Type_3/193.jpeg	12	251	13	191
../input/train/Type_3/30.jpeg	4	243	6	238
../input/train/Type_3/59.jpeg	235	85	198	92
../input/train/Type_3/172.jpeg	85	199	68	142
../input/train/Type_3/1455.jpeg	68	150	109	156
../input/train/Type_3/247.jpeg	6	237	7	159
../input/train/Type_3/1350.jpeg	40	189	95	164
../input/train/Type_3/692.jpeg	29	187	63	187
../input/train/Type_3/253.jpeg	21	196	112	242
../input/train/Type_3/1355.jpeg	3	244	50	223
../input/train/Type_3/565.jpeg	95	187	50	150
../input/train/Type_3/69.jpeg	1	243	6	245
../input/train/Type_3/877.jpeg	55	248	54	200
../input/train/Type_3/1470.jpeg	51	181	54	185
../input/train/Type_3/62.jpeg	60	179	81	199
../input/train/Type_3/636.jpeg	14	165	127	218
../input/train/Type_3/950.jpeg	48	238	66	178
../input/train/Type_3/1252.jpeg	139	240	53	141
../input/train/Type_3/436.jpeg	62	186	77	165
../input/train/Type_3/435.jpeg	70	205	63	164
../input/train/Type_3/1268.jpeg	71	202	69	177
../input/train/Type_3/585.jpeg	55	226	35	160
../input/train/Type_3/1375.jpeg	80	222	39	141
../input/train/Type_3/628.jpeg	7	239	4	244
../input/train/Type_3/637.jpeg	43	229	57	197
../input/train/Type_3/944.jpeg	160	47	102	13
../input/train/Type_3/108.jpeg	14	263	2	170
../input/train/Type_3/1461.jpeg	34	175	74	178
../input/train/Type_3/269.jpeg	11	245	5	233
../input/train/Type_3/415.jpeg	64	155	36	152
../input/train/Type_3/70.jpeg	61	159	96	170
../input/train/Type_3/1367.jpeg	108	224	48	115
../input/train/Type_3/980.jpeg	140	-7	214	83
../input/train/Type_3/750.jpeg	177	69	159	43
../input/train/Type_3/335.jpeg	6	209	51	187
../input/train/Type_3/1244.jpeg	3	246	9	220
../input/train/Type_3/1133.jpeg	100	186	46	110
../input/train/Type_3/1412.jpeg	11	253	29	197
../input/train/Type_3/1256.jpeg	1	257	16	208
../input/train/Type_3/158.jpeg	18	208	11	183
../input/train/Type_3/380.jpeg	3	251	4	247
../input/train/Type_3/1004.jpeg	93	250	62	207
../input/train/Type_3/1270.jpeg	39	242	4	81
../input/train/Type_3/491.jpeg	23	211	69	211
../input/train/Type_3/1374.jpeg	148	-18	159	-4
../input/train/Type_3/467.jpeg	5	253	36	223
../input/train/Type_3/1275.jpeg	82	256	29	196
../input/train/Type_3/33.jpeg	27	242	64	184
../input/train/Type_3/1396.jpeg	7	250	2	254
../input/train/Type_3/1167.jpeg	11	219	90	256
../input/train/Type_3/1397.jpeg	7	253	1	248
../input/train/Type_3/1278.jpeg	47	196	57	176
../input/train/Type_3/1207.jpeg	29	182	101	192
../input/train/Type_3/617.jpeg	67	226	33	133
../input/train/Type_3/689.jpeg	92	241	119	186
../input/train/Type_3/468.jpeg	245	127	28	194
../input/train/Type_3/690.jpeg	80	158	6	61
../input/train/Type_3/835.jpeg	52	175	77	171
../input/train/Type_3/600.jpeg	72	198	47	148
../input/train/Type_3/675.jpeg	54	227	43	152
../input/train/Type_3/1164.jpeg	5	219	87	238
../input/train/Type_3/1431.jpeg	38	254	75	235
../input/train/Type_3/806.jpeg	78	249	22	128
../input/train/Type_3/424.jpeg	59	163	72	180
../input/train/Type_3/1007.jpeg	8	244	11	203
../input/train/Type_3/1053.jpeg	70	230	75	193
../input/train/Type_3/543.jpeg	125	238	122	177
../input/train/Type_3/1030.jpeg	84	192	73	163
../input/train/Type_3/870.jpeg	31	221	33	147
../input/train/Type_3/280.jpeg	39	197	56	159
../input/train/Type_3/1069.jpeg	49	218	97	191
../input/train/Type_3/426.jpeg	10	144	80	175
../input/train/Type_3/627.jpeg	30	237	46	247
../input/train/Type_3/993.jpeg	4	235	45	249
../input/train/Type_3/402.jpeg	56	177	69	140
../input/train/Type_3/275.jpeg	36	140	60	203
../input/train/Type_3/626.jpeg	1	229	12	209
../input/train/Type_3/18.jpeg	14	234	101	238
../input/train/Type_3/318.jpeg	60	189	61	173
../input/train/Type_3/828.jpeg	91	191	63	169
../input/train/Type_3/869.jpeg	74	157	50	122
../input/train/Type_3/695.jpeg	85	198	87	215
../input/train/Type_3/812.jpeg	1	245	5	240
../input/train/Type_3/752.jpeg	36	197	50	191
../input/train/Type_3/197.jpeg	56	239	59	219
../input/train/Type_3/1200.jpeg	27	162	63	202
../input/train/Type_3/587.jpeg	27	195	47	190
../input/train/Type_3/422.jpeg	27	240	29	202
../input/train/Type_3/740.jpeg	64	167	13	132
../input/train/Type_3/498.jpeg	67	194	37	134
../input/train/Type_3/1387.jpeg	46	224	57	187
../input/train/Type_3/1477.jpeg	3	250	14	250
../input/train/Type_3/571.jpeg	46	184	48	157
../input/train/Type_3/362.jpeg	46	172	26	136
../input/train/Type_3/1183.jpeg	4	253	4	237
../input/train/Type_3/735.jpeg	4	251	40	243
../input/train/Type_3/947.jpeg	1	253	14	244
../input/train/Type_3/328.jpeg	2	247	9	250
../input/train/Type_3/431.jpeg	32	169	31	118
../input/train/Type_3/132.jpeg	68	209	73	192
../input/train/Type_3/322.jpeg	31	227	43	205
../input/train/Type_3/124.jpeg	5	208	53	212
../input/train/Type_3/1086.jpeg	8	246	21	239
../input/train/Type_3/1306.jpeg	67	185	86	192
../input/train/Type_3/839.jpeg	5	191	6	253
../input/train/Type_3/232.jpeg	31	215	68	178
../input/train/Type_3/289.jpeg	4	241	7	228
../input/train/Type_3/567.jpeg	5	155	12	251
../input/train/Type_3/996.jpeg	54	236	90	204
../input/train/Type_3/1366.jpeg	80	218	73	203
../input/train/Type_3/909.jpeg	47	159	84	187
../input/train/Type_3/1460.jpeg	4	253	25	167
../input/train/Type_3/625.jpeg	76	184	52	159
../input/train/Type_3/598.jpeg	17	261	4	157
../input/train/Type_3/391.jpeg	8	217	2	183
../input/train/Type_3/1094.jpeg	6	180	40	218
../input/train/Type_3/646.jpeg	57	224	83	189
../input/train/Type_3/1372.jpeg	101	212	47	196
../input/train/Type_3/758.jpeg	65	205	39	253
../input/train/Type_3/766.jpeg	3	250	8	252
../input/train/Type_3/450.jpeg	9	234	5	188
../input/train/Type_3/664.jpeg	4	247	7	221
../input/train/Type_3/1080.jpeg	7	219	21	176
../input/train/Type_3/746.jpeg	8	243	13	232
../input/train/Type_3/962.jpeg	56	171	26	83
../input/train/Type_3/808.jpeg	32	244	67	220
../input/train/Type_3/272.jpeg	2	253	3	250
../input/train/Type_3/594.jpeg	54	243	59	181
../input/train/Type_3/949.jpeg	205	123	90	31
../input/train/Type_3/711.jpeg	9	247	6	248
../input/train/Type_3/321.jpeg	10	250	6	220
../input/train/Type_3/697.jpeg	39	141	111	195
../input/train/Type_3/61.jpeg	6	237	6	241
../input/train/Type_3/299.jpeg	11	255	94	223
../input/train/Type_3/1237.jpeg	61	200	57	127
../input/train/Type_3/1394.jpeg	75	190	63	179
../input/train/Type_3/953.jpeg	49	211	101	204
../input/train/Type_3/263.jpeg	61	209	44	198
../input/train/Type_3/898.jpeg	2	252	6	252
../input/train/Type_3/466.jpeg	88	229	64	214
../input/train/Type_3/1417.jpeg	17	253	107	250
../input/train/Type_3/130.jpeg	50	252	100	210
../input/train/Type_3/773.jpeg	127	6	105	31
../input/train/Type_3/63.jpeg	54	222	92	175
../input/train/Type_3/174.jpeg	113	210	95	185
../input/train/Type_3/822.jpeg	12	243	16	204
../input/train/Type_3/113.jpeg	10	223	61	212
../input/train/Type_3/347.jpeg	3	243	72	241
../input/train/Type_3/324.jpeg	14	174	34	177
../input/train/Type_3/480.jpeg	30	216	49	188
../input/train/Type_3/1309.jpeg	39	228	17	219
../input/train/Type_3/1082.jpeg	58	207	89	209
../input/train/Type_3/221.jpeg	43	185	50	185
../input/train/Type_3/1447.jpeg	36	164	118	223
../input/train/Type_3/638.jpeg	7	225	9	243
../input/train/Type_3/352.jpeg	90	242	20	253
../input/train/Type_3/350.jpeg	36	157	97	179
../input/train/Type_3/1063.jpeg	1	213	27	180
../input/train/Type_3/145.jpeg	0	253	7	248
../input/train/Type_3/875.jpeg	7	228	46	253
../input/train/Type_3/941.jpeg	27	197	83	198
../input/train/Type_3/670.jpeg	114	228	45	177
../input/train/Type_3/196.jpeg	42	135	116	257
../input/train/Type_3/492.jpeg	37	196	77	199
../input/train/Type_3/1307.jpeg	53	172	49	160
../input/train/Type_3/878.jpeg	17	224	38	215
../input/train/Type_3/1235.jpeg	47	204	51	174
../input/train/Type_3/295.jpeg	57	178	73	177
../input/train/Type_3/287.jpeg	10	246	5	242
../input/train/Type_3/1206.jpeg	52	190	21	195
../input/train/Type_3/514.jpeg	81	188	66	180
../input/train/Type_3/737.jpeg	10	227	26	258
../input/train/Type_3/273.jpeg	193	30	121	8
../input/train/Type_3/1323.jpeg	78	170	48	155
../input/train/Type_3/845.jpeg	48	233	53	147
../input/train/Type_3/143.jpeg	53	183	97	194
../input/train/Type_3/893.jpeg	6	199	2	243
../input/train/Type_3/803.jpeg	25	210	23	139
../input/train/Type_3/820.jpeg	48	133	86	161
../input/train/Type_3/226.jpeg	4	255	5	249
../input/train/Type_3/742.jpeg	12	209	11	191
../input/train/Type_3/1008.jpeg	42	245	31	204
../input/train/Type_3/512.jpeg	36	226	107	258
../input/train/Type_3/11.jpeg	12	202	7	180
../input/train/Type_3/881.jpeg	75	182	64	172
../input/train/Type_3/1048.jpeg	38	166	116	196
../input/train/Type_3/211.jpeg	0	230	33	185
../input/train/Type_3/1408.jpeg	60	235	106	231
../input/train/Type_3/801.jpeg	15	232	29	246
../input/train/Type_3/439.jpeg	48	189	67	185
../input/train/Type_3/327.jpeg	58	182	62	182
../input/train/Type_3/83.jpeg	70	223	63	179
../input/train/Type_3/796.jpeg	44	209	75	187
../input/train/Type_3/715.jpeg	179	47	146	58
../input/train/Type_3/1333.jpeg	1	227	65	259
../input/train/Type_3/1402.jpeg	38	226	29	172
../input/train/Type_3/1286.jpeg	37	167	16	134
../input/train/Type_3/1166.jpeg	52	235	50	180
../input/train/Type_3/1475.jpeg	7	256	1	211
../input/train/Type_3/825.jpeg	9	200	26	183
../input/train/Type_3/599.jpeg	29	163	65	162
../input/train/Type_3/494.jpeg	177	85	164	80
../input/train/Type_3/71.jpeg	5	250	8	211
../input/train/Type_3/1248.jpeg	62	233	1	217
../input/train/Type_3/495.jpeg	23	182	48	157
../input/train/Type_3/914.jpeg	74	190	73	159
../input/train/Type_3/916.jpeg	4	233	3	173
../input/train/Type_3/736.jpeg	59	223	29	236
../input/train/Type_3/1265.jpeg	31	172	86	161
../input/train/Type_3/433.jpeg	3	254	5	247
../input/train/Type_3/166.jpeg	104	177	83	159
../input/train/Type_3/800.jpeg	8	167	67	244
../input/train/Type_3/125.jpeg	36	175	90	183
../input/train/Type_3/87.jpeg	4	248	6	134
../input/train/Type_3/1092.jpeg	3	222	4	213
../input/train/Type_3/1020.jpeg	16	224	44	210
../input/train/Type_3/277.jpeg	41	216	54	151
../input/train/Type_3/519.jpeg	40	223	33	240
../input/train/Type_3/1000.jpeg	38	213	49	240
../input/train/Type_3/1291.jpeg	17	253	51	211
../input/train/Type_3/555.jpeg	40	214	40	181
../input/train/Type_3/1296.jpeg	8	249	10	232
../input/train/Type_3/390.jpeg	2	175	29	235
../input/train/Type_3/975.jpeg	18	193	65	166
../input/train/Type_3/320.jpeg	23	250	25	224
../input/train/Type_3/309.jpeg	7	249	0	120
../input/train/Type_3/489.jpeg	64	170	53	220
../input/train/Type_3/900.jpeg	16	252	31	246
../input/train/Type_3/199.jpeg	51	183	44	136
../input/train/Type_3/479.jpeg	37	204	59	184
../input/train/Type_3/510.jpeg	52	201	32	152
../input/train/Type_3/747.jpeg	4	253	10	234
../input/train/Type_3/214.jpeg	50	200	103	186
../input/train/Type_3/1009.jpeg	25	239	4	235
../input/train/Type_3/823.jpeg	117	260	8	238
../input/train/Type_3/1347.jpeg	85	176	56	166
../input/train/Type_3/38.jpeg	75	222	91	196
../input/train/Type_3/1423.jpeg	65	143	82	145
../input/train/Type_3/1177.jpeg	84	203	45	165
../input/train/Type_3/73.jpeg	101	212	55	133
../input/train/Type_3/661.jpeg	90	215	94	195
../input/train/Type_3/155.jpeg	16	252	33	215
../input/train/Type_3/170.jpeg	50	174	92	226
../input/train/Type_3/1113.jpeg	46	186	77	147
../input/train/Type_3/300.jpeg	80	162	88	153
../input/train/Type_3/1028.jpeg	16	231	25	239
../input/train/Type_3/1129.jpeg	106	288	42	205
../input/train/Type_3/554.jpeg	18	247	3	221
../input/train/Type_3/1425.jpeg	48	165	49	134
../input/train/Type_3/631.jpeg	0	256	8	204
../input/train/Type_3/187.jpeg	1	198	9	249
../input/train/Type_3/1403.jpeg	27	192	83	196
../input/train/Type_3/258.jpeg	68	191	58	135
../input/train/Type_3/427.jpeg	8	218	5	183
../input/train/Type_3/951.jpeg	67	237	86	204
../input/train/Type_3/1162.jpeg	6	244	23	240
../input/train/Type_3/58.jpeg	57	249	88	224
../input/train/Type_3/734.jpeg	69	221	61	150
../input/train/Type_3/910.jpeg	15	143	24	222
../input/train/Type_3/1420.jpeg	79	212	41	157
../input/train/Type_3/1442.jpeg	1	201	16	227
../input/train/Type_3/228.jpeg	45	173	44	145
../input/train/Type_3/1280.jpeg	0	256	0	256
../input/train/Type_3/1157.jpeg	66	240	36	217
../input/train/Type_3/1107.jpeg	27	235	18	164
../input/train/Type_3/1045.jpeg	34	235	21	200
../input/train/Type_3/430.jpeg	28	220	4	248
../input/train/Type_3/866.jpeg	66	229	67	220
../input/train/Type_3/1254.jpeg	59	161	69	144
../input/train/Type_3/212.jpeg	39	120	55	128
../input/train/Type_3/465.jpeg	55	172	115	214
../input/train/Type_3/169.jpeg	37	206	34	222
../input/train/Type_3/409.jpeg	14	131	71	193
../input/train/Type_3/325.jpeg	50	206	80	196
../input/train/Type_3/242.jpeg	6	248	5	250
../input/train/Type_3/150.jpeg	56	200	80	160
../input/train/Type_3/669.jpeg	31	114	29	130
../input/train/Type_3/899.jpeg	42	191	43	152
../input/train/Type_3/767.jpeg	12	250	10	237
../input/train/Type_3/782.jpeg	20	254	36	250
../input/train/Type_3/1153.jpeg	47	198	42	170
../input/train/Type_3/23.jpeg	12	230	137	252
../input/train/Type_3/475.jpeg	1	248	3	251
../input/train/Type_3/220.jpeg	80	184	105	197
../input/train/Type_3/222.jpeg	73	214	42	183
../input/train/Type_3/1335.jpeg	7	200	11	184
../input/train/Type_3/1128.jpeg	56	202	58	155
../input/train/Type_3/146.jpeg	35	91	101	142
../input/train/Type_3/1364.jpeg	52	163	69	170
../input/train/Type_3/527.jpeg	85	222	66	181
../input/train/Type_3/672.jpeg	63	185	74	174
../input/train/Type_3/927.jpeg	62	184	59	217
../input/train/Type_3/82.jpeg	49	242	91	251
../input/train/Type_3/405.jpeg	38	169	58	198
../input/train/Type_3/811.jpeg	10	191	48	216
../input/train/Type_3/1052.jpeg	102	208	6	205
../input/train/Type_3/154.jpeg	77	194	62	186
../input/train/Type_3/945.jpeg	125	226	40	142
../input/train/Type_3/784.jpeg	11	161	36	192
../input/train/Type_3/1300.jpeg	31	173	18	109
../input/train/Type_3/1429.jpeg	3	239	5	211
../input/train/Type_3/694.jpeg	28	181	102	229
../input/train/Type_3/1409.jpeg	52	166	88	172
../input/train/Type_3/1232.jpeg	9	257	4	249
../input/train/Type_3/1112.jpeg	62	197	57	187
../input/train/Type_3/1110.jpeg	19	241	8	228
../input/train/Type_3/757.jpeg	40	125	84	167
../input/train/Type_3/706.jpeg	52	178	49	137
../input/train/Type_3/923.jpeg	41	160	41	116
../input/train/Type_3/892.jpeg	46	193	100	195
../input/train/Type_3/983.jpeg	25	248	68	237
../input/train/Type_3/837.jpeg	57	167	25	112
../input/train/Type_3/1031.jpeg	17	221	42	219
../input/train/Type_3/635.jpeg	65	180	34	159
../input/train/Type_3/1111.jpeg	23	229	121	249
../input/train/Type_3/500.jpeg	36	197	96	186
../input/train/Type_3/733.jpeg	39	228	32	180
../input/train/Type_3/1003.jpeg	37	184	83	229
../input/train/Type_3/575.jpeg	6	248	6	238
../input/train/Type_3/1108.jpeg	52	218	56	189
../input/train/Type_3/1404.jpeg	5	247	10	251
../input/train/Type_3/1410.jpeg	51	235	66	209
../input/train/Type_3/1351.jpeg	27	211	43	214
../input/train/Type_3/1459.jpeg	48	210	32	185
../input/train/Type_3/361.jpeg	52	236	72	190
../input/train/Type_3/256.jpeg	29	154	51	178
../input/train/Type_3/16.jpeg	8	254	5	244
../input/train/Type_3/202.jpeg	68	233	1	245
../input/train/Type_3/778.jpeg	81	162	68	174
../input/train/Type_3/755.jpeg	7	239	6	225
../input/train/Type_3/1208.jpeg	15	241	72	244
../input/train/Type_3/50.jpeg	46	225	13	242
../input/train/Type_3/194.jpeg	24	177	8	158
../input/train/Type_3/1150.jpeg	20	228	4	210
../input/train/Type_3/511.jpeg	20	167	37	162
../input/train/Type_3/20.jpeg	24	201	73	248
../input/train/Type_3/286.jpeg	13	244	32	242
../input/train/Type_3/799.jpeg	50	236	21	142
../input/train/Type_3/217.jpeg	63	193	108	226
../input/train/Type_3/1332.jpeg	28	234	75	218
../input/train/Type_3/1479.jpeg	5	250	4	249
../input/train/Type_3/399.jpeg	75	211	140	220
../input/train/Type_3/1034.jpeg	53	193	26	178
../input/train/Type_3/954.jpeg	127	208	123	212
../input/train/Type_3/370.jpeg	3	70	44	95
../input/train/Type_3/629.jpeg	27	146	46	145
../input/train/Type_3/1037.jpeg	106	185	13	118
../input/train/Type_3/260.jpeg	63	196	43	187
../input/train/Type_3/1224.jpeg	9	201	76	252
../input/train/Type_3/292.jpeg	5	255	9	241
../input/train/Type_3/477.jpeg	44	164	56	199
../input/train/Type_3/728.jpeg	0	256	0	256
../input/train/Type_3/864.jpeg	31	257	38	251
../input/train/Type_3/604.jpeg	86	215	37	160
../input/train/Type_3/774.jpeg	105	233	51	153
../input/train/Type_3/163.jpeg	28	208	28	130
../input/train/Type_3/907.jpeg	78	225	102	227
../input/train/Type_3/682.jpeg	62	241	52	194
../input/train/Type_3/1469.jpeg	42	228	101	209
../input/train/Type_3/818.jpeg	44	220	61	207
../input/train/Type_3/355.jpeg	75	218	88	205
../input/train/Type_3/885.jpeg	67	219	90	211
../input/train/Type_3/530.jpeg	8	246	1	241
../input/train/Type_3/249.jpeg	70	218	28	189
../input/train/Type_3/49.jpeg	71	179	64	147
../input/train/Type_3/780.jpeg	45	185	55	161
../input/train/Type_3/679.jpeg	35	175	71	166
../input/train/Type_3/259.jpeg	116	225	44	151
../input/train/Type_3/1137.jpeg	80	225	35	226
../input/train/Type_3/1341.jpeg	92	243	35	155
../input/train/Type_3/943.jpeg	94	201	53	180
../input/train/Type_3/25.jpeg	46	197	144	242
../input/train/Type_3/520.jpeg	45	228	80	242
../input/train/Type_3/1284.jpeg	11	185	40	267
../input/train/Type_3/1458.jpeg	81	217	70	210
