../input/train/Type_2/1365.jpeg	136	66	125	49
../input/train/Type_2/1312.jpeg	117	219	54	146
../input/train/Type_2/1096.jpeg	90	166	105	188
../input/train/Type_2/99.jpeg	68	160	84	174
../input/train/Type_2/792.jpeg	66	216	52	212
../input/train/Type_2/1219.jpeg	34	156	117	229
../input/train/Type_2/1337.jpeg	28	196	10	100
../input/train/Type_2/442.jpeg	24	206	38	180
../input/train/Type_2/834.jpeg	0	256	0	256
../input/train/Type_2/303.jpeg	22	239	16	245
../input/train/Type_2/1017.jpeg	11	169	59	258
../input/train/Type_2/78.jpeg	2	233	15	245
../input/train/Type_2/867.jpeg	43	189	54	150
../input/train/Type_2/85.jpeg	40	235	28	221
../input/train/Type_2/832.jpeg	74	231	89	218
../input/train/Type_2/136.jpeg	24	180	29	126
../input/train/Type_2/807.jpeg	9	248	24	178
../input/train/Type_2/95.jpeg	29	237	77	249
../input/train/Type_2/400.jpeg	63	255	26	208
../input/train/Type_2/429.jpeg	145	222	120	241
../input/train/Type_2/75.jpeg	64	181	73	172
../input/train/Type_2/798.jpeg	0	256	0	256
../input/train/Type_2/241.jpeg	32	213	19	176
../input/train/Type_2/1313.jpeg	18	241	37	232
../input/train/Type_2/1418.jpeg	0	256	0	256
../input/train/Type_2/438.jpeg	32	256	140	256
../input/train/Type_2/707.jpeg	28	210	70	188
../input/train/Type_2/1315.jpeg	40	54	24	32
../input/train/Type_2/768.jpeg	18	208	100	232
../input/train/Type_2/1325.jpeg	65	231	81	216
../input/train/Type_2/224.jpeg	12	186	0	157
../input/train/Type_2/1457.jpeg	9	233	22	212
../input/train/Type_2/506.jpeg	6	211	35	213
../input/train/Type_2/568.jpeg	54	246	43	232
../input/train/Type_2/486.jpeg	10	224	38	207
../input/train/Type_2/607.jpeg	38	190	26	100
../input/train/Type_2/703.jpeg	3	106	58	186
../input/train/Type_2/1411.jpeg	2	238	37	231
../input/train/Type_2/278.jpeg	46	217	123	227
../input/train/Type_2/437.jpeg	26	171	55	207
../input/train/Type_2/60.jpeg	51	192	26	211
../input/train/Type_2/741.jpeg	81	204	22	217
../input/train/Type_2/1428.jpeg	38	203	43	210
../input/train/Type_2/546.jpeg	7	206	88	220
../input/train/Type_2/856.jpeg	49	159	72	150
../input/train/Type_2/1211.jpeg	51	256	60	256
../input/train/Type_2/797.jpeg	0	256	0	256
../input/train/Type_2/302.jpeg	95	204	61	177
../input/train/Type_2/698.jpeg	51	240	35	214
../input/train/Type_2/192.jpeg	44	182	55	174
../input/train/Type_2/337.jpeg	63	207	55	179
../input/train/Type_2/1338.jpeg	1	244	12	202
../input/train/Type_2/1078.jpeg	17	191	41	184
../input/train/Type_2/719.jpeg	90	198	75	149
../input/train/Type_2/790.jpeg	9	251	145	232
../input/train/Type_2/1379.jpeg	33	208	49	153
../input/train/Type_2/182.jpeg	56	210	57	220
../input/train/Type_2/310.jpeg	13	215	78	230
../input/train/Type_2/460.jpeg	4	187	5	185
../input/train/Type_2/364.jpeg	16	210	64	185
../input/train/Type_2/1321.jpeg	12	219	79	248
../input/train/Type_2/1292.jpeg	3	222	94	217
../input/train/Type_2/1125.jpeg	35	235	84	248
../input/train/Type_2/1436.jpeg	62	206	60	228
../input/train/Type_2/51.jpeg	73	216	111	234
../input/train/Type_2/1357.jpeg	1	249	28	205
../input/train/Type_2/19.jpeg	209	50	234	131
../input/train/Type_2/1159.jpeg	200	33	177	26
../input/train/Type_2/423.jpeg	214	32	234	93
../input/train/Type_2/1142.jpeg	0	256	0	256
../input/train/Type_2/521.jpeg	238	33	170	-6
../input/train/Type_2/508.jpeg	34	207	33	231
../input/train/Type_2/501.jpeg	5	257	1	214
../input/train/Type_2/406.jpeg	5	248	63	219
../input/train/Type_2/365.jpeg	226	68	177	11
../input/train/Type_2/93.jpeg	133	256	25	216
../input/train/Type_2/36.jpeg	5	234	16	218
../input/train/Type_2/290.jpeg	178	4	207	42
../input/train/Type_2/1193.jpeg	48	197	158	231
../input/train/Type_2/684.jpeg	1	251	18	223
../input/train/Type_2/793.jpeg	80	174	90	189
../input/train/Type_2/1201.jpeg	105	163	83	121
../input/train/Type_2/52.jpeg	64	192	90	190
../input/train/Type_2/665.jpeg	3	154	22	123
../input/train/Type_2/622.jpeg	0	256	0	256
../input/train/Type_2/1214.jpeg	1	217	5	187
../input/train/Type_2/517.jpeg	0	256	0	256
../input/train/Type_2/1334.jpeg	2	261	3	213
../input/train/Type_2/1419.jpeg	75	199	50	175
../input/train/Type_2/868.jpeg	39	217	63	184
../input/train/Type_2/90.jpeg	50	181	93	149
../input/train/Type_2/960.jpeg	79	202	134	250
../input/train/Type_2/871.jpeg	68	182	37	148
../input/train/Type_2/133.jpeg	65	179	74	169
../input/train/Type_2/958.jpeg	75	141	110	204
../input/train/Type_2/175.jpeg	68	158	117	187
../input/train/Type_2/397.jpeg	36	224	75	214
../input/train/Type_2/1327.jpeg	155	223	88	150
../input/train/Type_2/476.jpeg	67	194	42	156
../input/train/Type_2/173.jpeg	254	2	253	2
../input/train/Type_2/999.jpeg	247	15	228	51
../input/train/Type_2/1249.jpeg	44	156	25	163
../input/train/Type_2/1050.jpeg	50	199	22	157
../input/train/Type_2/615.jpeg	121	208	22	157
../input/train/Type_2/1160.jpeg	52	195	41	159
../input/train/Type_2/1236.jpeg	0	256	0	256
../input/train/Type_2/227.jpeg	0	256	0	256
../input/train/Type_2/761.jpeg	60	168	20	134
../input/train/Type_2/293.jpeg	81	225	48	132
../input/train/Type_2/88.jpeg	84	196	18	145
../input/train/Type_2/490.jpeg	0	256	0	256
../input/train/Type_2/1451.jpeg	74	162	101	191
../input/train/Type_2/411.jpeg	103	198	85	233
../input/train/Type_2/447.jpeg	71	207	71	191
../input/train/Type_2/1240.jpeg	56	146	78	182
../input/train/Type_2/367.jpeg	85	200	92	207
../input/train/Type_2/1144.jpeg	20	177	48	246
../input/train/Type_2/1084.jpeg	50	183	30	220
../input/train/Type_2/724.jpeg	35	177	63	198
../input/train/Type_2/374.jpeg	54	175	49	164
../input/train/Type_2/1316.jpeg	0	256	0	256
../input/train/Type_2/1305.jpeg	64	180	36	215
../input/train/Type_2/1342.jpeg	118	214	74	170
../input/train/Type_2/1304.jpeg	0	256	0	256
../input/train/Type_2/561.jpeg	69	191	108	245
../input/train/Type_2/1218.jpeg	73	172	71	149
../input/train/Type_2/233.jpeg	65	153	83	147
../input/train/Type_2/1416.jpeg	40	251	135	251
../input/train/Type_2/1340.jpeg	49	200	59	228
../input/train/Type_2/403.jpeg	12	188	87	247
../input/train/Type_2/693.jpeg	83	210	72	210
../input/train/Type_2/15.jpeg	86	217	71	241
../input/train/Type_2/849.jpeg	17	191	3	180
../input/train/Type_2/134.jpeg	69	222	36	226
../input/train/Type_2/937.jpeg	13	189	79	238
../input/train/Type_2/824.jpeg	23	223	127	240
../input/train/Type_2/371.jpeg	92	179	89	159
../input/train/Type_2/440.jpeg	1	176	71	231
../input/train/Type_2/967.jpeg	90	197	72	178
../input/train/Type_2/1025.jpeg	0	253	24	234
../input/train/Type_2/152.jpeg	227	63	241	90
../input/train/Type_2/1012.jpeg	31	226	53	208
../input/train/Type_2/1348.jpeg	9	229	61	202
../input/train/Type_2/592.jpeg	0	256	0	256
../input/train/Type_2/882.jpeg	36	240	41	202
../input/train/Type_2/1445.jpeg	101	187	107	199
../input/train/Type_2/662.jpeg	255	99	251	61
../input/train/Type_2/647.jpeg	82	176	81	217
../input/train/Type_2/122.jpeg	43	201	63	169
../input/train/Type_2/852.jpeg	203	77	179	66
../input/train/Type_2/1462.jpeg	68	218	98	233
../input/train/Type_2/244.jpeg	63	145	78	125
../input/train/Type_2/642.jpeg	0	256	0	256
../input/train/Type_2/1119.jpeg	51	129	97	156
../input/train/Type_2/1197.jpeg	60	229	58	180
../input/train/Type_2/1195.jpeg	121	30	143	79
../input/train/Type_2/1189.jpeg	7	221	64	222
../input/train/Type_2/1043.jpeg	41	173	51	156
../input/train/Type_2/696.jpeg	28	166	66	162
../input/train/Type_2/754.jpeg	30	225	74	209
../input/train/Type_2/255.jpeg	0	256	0	256
../input/train/Type_2/528.jpeg	15	244	48	212
../input/train/Type_2/569.jpeg	68	197	29	203
../input/train/Type_2/621.jpeg	139	228	87	168
../input/train/Type_2/756.jpeg	64	159	78	208
../input/train/Type_2/94.jpeg	56	178	70	206
../input/train/Type_2/164.jpeg	52	178	62	191
../input/train/Type_2/198.jpeg	102	157	79	131
../input/train/Type_2/151.jpeg	20	218	13	220
../input/train/Type_2/1363.jpeg	72	235	66	235
../input/train/Type_2/407.jpeg	47	154	54	199
../input/train/Type_2/688.jpeg	69	181	39	132
../input/train/Type_2/657.jpeg	0	256	0	256
../input/train/Type_2/159.jpeg	0	256	0	256
../input/train/Type_2/185.jpeg	73	180	46	193
../input/train/Type_2/140.jpeg	36	206	69	219
../input/train/Type_2/504.jpeg	75	146	113	169
../input/train/Type_2/1121.jpeg	18	202	42	167
../input/train/Type_2/1042.jpeg	119	192	103	217
../input/train/Type_2/203.jpeg	60	194	40	159
../input/train/Type_2/420.jpeg	47	203	54	212
../input/train/Type_2/24.jpeg	13	201	31	213
../input/train/Type_2/955.jpeg	61	171	46	114
../input/train/Type_2/385.jpeg	61	235	17	236
../input/train/Type_2/488.jpeg	6	249	5	202
../input/train/Type_2/1103.jpeg	54	166	94	168
../input/train/Type_2/994.jpeg	70	183	76	183
../input/train/Type_2/522.jpeg	55	189	95	209
../input/train/Type_2/54.jpeg	30	183	30	231
../input/train/Type_2/505.jpeg	0	256	0	256
../input/train/Type_2/933.jpeg	81	179	73	197
../input/train/Type_2/1058.jpeg	52	178	75	174
../input/train/Type_2/702.jpeg	0	256	0	256
../input/train/Type_2/1449.jpeg	9	165	48	211
../input/train/Type_2/888.jpeg	0	256	0	256
../input/train/Type_2/32.jpeg	12	238	91	240
../input/train/Type_2/204.jpeg	59	203	53	191
../input/train/Type_2/744.jpeg	28	220	58	211
../input/train/Type_2/120.jpeg	58	181	57	155
../input/train/Type_2/557.jpeg	83	208	50	177
../input/train/Type_2/1106.jpeg	55	67	14	23
../input/train/Type_2/107.jpeg	4	256	1	224
../input/train/Type_2/162.jpeg	32	223	37	163
../input/train/Type_2/393.jpeg	30	215	48	139
../input/train/Type_2/525.jpeg	9	235	32	187
../input/train/Type_2/548.jpeg	0	256	0	256
../input/train/Type_2/326.jpeg	127	183	104	174
../input/train/Type_2/1198.jpeg	45	199	22	173
../input/train/Type_2/1205.jpeg	60	138	98	172
../input/train/Type_2/1258.jpeg	27	208	18	186
../input/train/Type_2/529.jpeg	54	197	95	249
../input/train/Type_2/413.jpeg	61	159	63	215
../input/train/Type_2/651.jpeg	18	161	24	215
../input/train/Type_2/1203.jpeg	132	190	102	141
../input/train/Type_2/153.jpeg	17	193	19	163
../input/train/Type_2/1328.jpeg	104	189	81	177
../input/train/Type_2/1358.jpeg	85	212	128	208
../input/train/Type_2/502.jpeg	99	187	74	195
../input/train/Type_2/1122.jpeg	118	197	112	175
../input/train/Type_2/969.jpeg	57	161	47	207
../input/train/Type_2/509.jpeg	0	256	0	256
../input/train/Type_2/777.jpeg	10	255	51	193
../input/train/Type_2/804.jpeg	0	256	0	256
../input/train/Type_2/165.jpeg	58	199	34	213
../input/train/Type_2/1353.jpeg	91	192	39	204
../input/train/Type_2/1432.jpeg	38	144	124	225
../input/train/Type_2/857.jpeg	63	203	40	185
../input/train/Type_2/1424.jpeg	46	170	70	198
../input/train/Type_2/353.jpeg	85	196	55	189
../input/train/Type_2/915.jpeg	103	231	23	170
../input/train/Type_2/1472.jpeg	28	138	71	244
../input/train/Type_2/1260.jpeg	65	141	70	144
../input/train/Type_2/190.jpeg	0	186	38	220
../input/train/Type_2/68.jpeg	34	131	58	143
../input/train/Type_2/640.jpeg	59	167	48	229
../input/train/Type_2/1186.jpeg	70	193	115	177
../input/train/Type_2/1057.jpeg	63	179	70	129
../input/train/Type_2/1155.jpeg	58	176	54	179
../input/train/Type_2/1373.jpeg	0	202	5	197
../input/train/Type_2/284.jpeg	92	167	73	130
../input/train/Type_2/1149.jpeg	95	172	55	150
../input/train/Type_2/701.jpeg	4	174	4	174
../input/train/Type_2/206.jpeg	23	195	42	180
../input/train/Type_2/929.jpeg	6	259	42	218
../input/train/Type_2/826.jpeg	26	232	40	182
../input/train/Type_2/358.jpeg	86	168	54	186
../input/train/Type_2/264.jpeg	42	177	103	226
../input/train/Type_2/1452.jpeg	86	256	21	256
../input/train/Type_2/1098.jpeg	103	183	53	128
../input/train/Type_2/658.jpeg	56	188	86	200
../input/train/Type_2/29.jpeg	76	126	94	144
../input/train/Type_2/535.jpeg	98	189	85	198
../input/train/Type_2/652.jpeg	72	201	56	207
../input/train/Type_2/1405.jpeg	28	230	26	206
../input/train/Type_2/1261.jpeg	54	256	58	256
../input/train/Type_2/72.jpeg	37	161	63	170
../input/train/Type_2/785.jpeg	26	135	23	135
../input/train/Type_2/603.jpeg	99	112	46	69
../input/train/Type_2/168.jpeg	58	202	70	237
../input/train/Type_2/547.jpeg	78	150	106	181
../input/train/Type_2/859.jpeg	88	212	88	154
../input/train/Type_2/464.jpeg	64	193	66	173
../input/train/Type_2/1147.jpeg	56	191	45	167
../input/train/Type_2/89.jpeg	50	172	60	187
../input/train/Type_2/372.jpeg	102	201	126	191
../input/train/Type_2/1250.jpeg	50	130	60	143
../input/train/Type_2/1399.jpeg	52	189	67	193
../input/train/Type_2/1151.jpeg	10	223	6	166
../input/train/Type_2/276.jpeg	149	256	105	256
../input/train/Type_2/1158.jpeg	39	201	41	205
../input/train/Type_2/549.jpeg	89	205	55	165
../input/train/Type_2/1253.jpeg	0	256	0	256
../input/train/Type_2/121.jpeg	48	170	72	234
../input/train/Type_2/1172.jpeg	76	167	85	163
../input/train/Type_2/992.jpeg	14	154	29	163
../input/train/Type_2/704.jpeg	79	165	59	156
../input/train/Type_2/1383.jpeg	5	170	44	188
../input/train/Type_2/861.jpeg	23	137	70	194
../input/train/Type_2/730.jpeg	49	201	17	174
../input/train/Type_2/195.jpeg	90	161	70	133
../input/train/Type_2/716.jpeg	55	220	61	206
../input/train/Type_2/985.jpeg	7	228	19	197
../input/train/Type_2/584.jpeg	8	249	6	137
../input/train/Type_2/1377.jpeg	0	256	0	256
../input/train/Type_2/123.jpeg	50	190	52	190
../input/train/Type_2/268.jpeg	0	256	0	256
../input/train/Type_2/1264.jpeg	0	256	0	256
../input/train/Type_2/482.jpeg	36	256	89	256
../input/train/Type_2/676.jpeg	37	218	44	241
../input/train/Type_2/1238.jpeg	32	256	31	256
../input/train/Type_2/1087.jpeg	4	241	172	257
../input/train/Type_2/775.jpeg	73	204	77	154
../input/train/Type_2/1388.jpeg	89	179	85	175
../input/train/Type_2/1444.jpeg	11	129	52	160
../input/train/Type_2/1011.jpeg	19	150	81	182
../input/train/Type_2/1126.jpeg	112	221	112	197
../input/train/Type_2/1188.jpeg	86	170	90	162
../input/train/Type_2/938.jpeg	27	225	49	180
../input/train/Type_2/453.jpeg	64	161	32	184
../input/train/Type_2/939.jpeg	93	190	128	194
../input/train/Type_2/989.jpeg	37	160	60	150
../input/train/Type_2/566.jpeg	37	192	44	164
../input/train/Type_2/524.jpeg	92	157	117	166
../input/train/Type_2/1180.jpeg	40	184	73	184
../input/train/Type_2/1385.jpeg	26	184	38	164
../input/train/Type_2/552.jpeg	51	143	96	183
../input/train/Type_2/1231.jpeg	113	148	112	137
../input/train/Type_2/589.jpeg	46	167	81	190
../input/train/Type_2/1222.jpeg	55	176	46	156
../input/train/Type_2/1359.jpeg	79	180	76	157
../input/train/Type_2/1247.jpeg	77	219	91	219
../input/train/Type_2/1072.jpeg	66	177	56	132
../input/train/Type_2/718.jpeg	91	202	150	216
../input/train/Type_2/563.jpeg	63	184	37	179
../input/train/Type_2/1055.jpeg	67	150	57	151
../input/train/Type_2/1005.jpeg	0	256	0	256
../input/train/Type_2/157.jpeg	0	256	0	256
../input/train/Type_2/1135.jpeg	35	139	36	96
../input/train/Type_2/116.jpeg	58	190	76	181
../input/train/Type_2/343.jpeg	80	186	63	161
../input/train/Type_2/1303.jpeg	77	169	75	164
../input/train/Type_2/934.jpeg	145	231	118	178
../input/train/Type_2/1293.jpeg	42	181	105	219
../input/train/Type_2/414.jpeg	56	201	43	174
../input/train/Type_2/632.jpeg	8	168	41	145
../input/train/Type_2/461.jpeg	39	173	72	197
../input/train/Type_2/56.jpeg	108	194	136	200
../input/train/Type_2/717.jpeg	58	199	82	198
../input/train/Type_2/1170.jpeg	56	121	86	172
../input/train/Type_2/1246.jpeg	65	196	45	192
../input/train/Type_2/1276.jpeg	0	256	0	256
../input/train/Type_2/84.jpeg	73	219	64	213
../input/train/Type_2/1242.jpeg	28	247	23	202
../input/train/Type_2/1036.jpeg	94	179	79	139
../input/train/Type_2/1217.jpeg	49	154	86	192
../input/train/Type_2/282.jpeg	56	237	37	148
../input/train/Type_2/1349.jpeg	3	232	65	186
../input/train/Type_2/819.jpeg	32	173	80	238
../input/train/Type_2/1114.jpeg	69	160	84	163
../input/train/Type_2/97.jpeg	41	199	65	160
../input/train/Type_2/1184.jpeg	77	196	68	189
../input/train/Type_2/771.jpeg	55	174	83	153
../input/train/Type_2/948.jpeg	245	7	186	80
../input/train/Type_2/451.jpeg	72	256	77	256
../input/train/Type_2/1039.jpeg	104	199	71	154
../input/train/Type_2/1446.jpeg	56	256	54	256
../input/train/Type_2/942.jpeg	15	184	11	149
../input/train/Type_2/699.jpeg	100	256	115	256
../input/train/Type_2/1283.jpeg	0	256	0	256
../input/train/Type_2/28.jpeg	70	153	32	109
../input/train/Type_2/1178.jpeg	28	57	79	69
../input/train/Type_2/257.jpeg	95	194	47	108
../input/train/Type_2/1480.jpeg	50	223	67	213
../input/train/Type_2/443.jpeg	70	197	64	193
../input/train/Type_2/131.jpeg	77	175	59	144
../input/train/Type_2/360.jpeg	109	200	38	139
../input/train/Type_2/458.jpeg	66	171	60	148
../input/train/Type_2/964.jpeg	55	227	95	236
../input/train/Type_2/970.jpeg	47	256	66	256
../input/train/Type_2/147.jpeg	31	245	123	247
../input/train/Type_2/270.jpeg	32	257	55	219
../input/train/Type_2/39.jpeg	32	256	58	256
../input/train/Type_2/66.jpeg	59	256	46	256
../input/train/Type_2/1380.jpeg	21	180	32	180
../input/train/Type_2/588.jpeg	69	151	74	165
../input/train/Type_2/26.jpeg	67	184	73	186
../input/train/Type_2/418.jpeg	7	188	73	194
../input/train/Type_2/499.jpeg	93	209	52	163
../input/train/Type_2/1450.jpeg	69	192	68	228
../input/train/Type_2/1354.jpeg	12	256	74	256
../input/train/Type_2/1471.jpeg	65	222	75	193
../input/train/Type_2/105.jpeg	71	238	65	220
../input/train/Type_2/515.jpeg	91	159	65	146
../input/train/Type_2/1090.jpeg	89	167	127	186
../input/train/Type_2/865.jpeg	85	175	110	224
../input/train/Type_2/926.jpeg	64	179	80	207
../input/train/Type_2/1386.jpeg	67	228	48	156
../input/train/Type_2/1453.jpeg	48	159	77	204
../input/train/Type_2/110.jpeg	73	256	62	256
../input/train/Type_2/534.jpeg	78	256	88	256
../input/train/Type_2/319.jpeg	0	256	0	256
../input/train/Type_2/979.jpeg	85	256	89	256
../input/train/Type_2/189.jpeg	83	152	79	182
../input/train/Type_2/1046.jpeg	0	256	0	256
../input/train/Type_2/243.jpeg	0	256	0	256
../input/train/Type_2/925.jpeg	82	199	103	195
../input/train/Type_2/1018.jpeg	160	256	56	256
../input/train/Type_2/1076.jpeg	97	191	74	161
../input/train/Type_2/609.jpeg	114	188	55	110
../input/train/Type_2/1311.jpeg	71	235	86	227
../input/train/Type_2/1297.jpeg	24	182	90	224
../input/train/Type_2/17.jpeg	67	210	101	210
../input/train/Type_2/988.jpeg	63	174	63	167
../input/train/Type_2/126.jpeg	80	237	82	231
../input/train/Type_2/813.jpeg	23	148	58	159
../input/train/Type_2/602.jpeg	36	256	28	256
../input/train/Type_2/1140.jpeg	84	202	127	235
../input/train/Type_2/1282.jpeg	57	256	7	256
../input/train/Type_2/1298.jpeg	83	182	62	191
../input/train/Type_2/850.jpeg	0	256	0	256
../input/train/Type_2/789.jpeg	89	183	113	214
../input/train/Type_2/1415.jpeg	84	189	56	145
../input/train/Type_2/762.jpeg	68	184	70	208
../input/train/Type_2/1476.jpeg	86	169	64	159
../input/train/Type_2/1295.jpeg	56	168	49	144
../input/train/Type_2/905.jpeg	52	206	99	221
../input/train/Type_2/1272.jpeg	110	189	133	205
../input/train/Type_2/830.jpeg	36	224	16	222
../input/train/Type_2/1209.jpeg	178	67	153	51
../input/train/Type_2/101.jpeg	0	256	0	256
../input/train/Type_2/544.jpeg	84	213	96	199
../input/train/Type_2/377.jpeg	70	197	50	159
../input/train/Type_2/1156.jpeg	51	169	40	181
../input/train/Type_2/1049.jpeg	47	194	25	228
../input/train/Type_2/1118.jpeg	46	198	70	185
../input/train/Type_2/1317.jpeg	76	201	37	169
../input/train/Type_2/404.jpeg	0	256	0	256
../input/train/Type_2/616.jpeg	0	256	0	256
../input/train/Type_2/266.jpeg	23	256	16	256
../input/train/Type_2/53.jpeg	0	256	0	256
../input/train/Type_2/748.jpeg	65	183	36	149
../input/train/Type_2/412.jpeg	0	256	0	256
../input/train/Type_2/1022.jpeg	37	203	101	198
../input/train/Type_2/117.jpeg	0	256	0	256
../input/train/Type_2/577.jpeg	86	237	31	167
../input/train/Type_2/149.jpeg	50	176	86	190
../input/train/Type_2/137.jpeg	0	256	0	256
../input/train/Type_2/340.jpeg	3	256	42	256
../input/train/Type_2/1196.jpeg	41	256	77	256
../input/train/Type_2/127.jpeg	51	162	57	202
../input/train/Type_2/161.jpeg	63	168	73	177
../input/train/Type_2/614.jpeg	46	214	93	194
../input/train/Type_2/1263.jpeg	0	256	0	256
../input/train/Type_2/351.jpeg	85	158	125	180
../input/train/Type_2/496.jpeg	183	73	173	93
../input/train/Type_2/634.jpeg	69	157	59	166
../input/train/Type_2/1413.jpeg	22	166	13	214
../input/train/Type_2/1124.jpeg	0	256	0	256
../input/train/Type_2/542.jpeg	55	150	32	109
../input/train/Type_2/462.jpeg	93	152	37	178
../input/train/Type_2/1345.jpeg	61	169	40	202
../input/train/Type_2/1032.jpeg	72	199	71	194
../input/train/Type_2/1356.jpeg	70	158	125	203
../input/train/Type_2/183.jpeg	63	171	66	186
../input/train/Type_2/987.jpeg	60	155	89	174
../input/train/Type_2/389.jpeg	20	95	119	184
../input/train/Type_2/493.jpeg	44	91	62	102
../input/train/Type_2/860.jpeg	11	216	30	164
../input/train/Type_2/863.jpeg	110	209	116	183
../input/train/Type_2/1361.jpeg	65	208	23	186
../input/train/Type_2/1097.jpeg	52	159	63	150
../input/train/Type_2/781.jpeg	64	188	39	172
../input/train/Type_2/177.jpeg	65	193	36	207
../input/train/Type_2/313.jpeg	97	189	98	206
../input/train/Type_2/1141.jpeg	93	167	110	161
../input/train/Type_2/841.jpeg	75	174	85	179
../input/train/Type_2/119.jpeg	74	134	76	124
../input/train/Type_2/455.jpeg	48	126	72	139
../input/train/Type_2/570.jpeg	66	170	85	160
../input/train/Type_2/1474.jpeg	79	256	67	256
../input/train/Type_2/231.jpeg	31	256	52	256
../input/train/Type_2/1044.jpeg	119	256	38	256
../input/train/Type_2/1267.jpeg	65	205	57	198
../input/train/Type_2/1478.jpeg	202	19	117	59
../input/train/Type_2/723.jpeg	20	256	9	256
../input/train/Type_2/1318.jpeg	47	256	99	256
../input/train/Type_2/1443.jpeg	78	256	68	256
../input/train/Type_2/375.jpeg	103	256	84	256
../input/train/Type_2/1132.jpeg	18	256	45	256
../input/train/Type_2/91.jpeg	127	123	40	88
../input/train/Type_2/1213.jpeg	81	256	83	256
../input/train/Type_2/559.jpeg	0	256	0	256
../input/train/Type_2/1426.jpeg	25	244	36	211
../input/train/Type_2/1439.jpeg	40	180	75	195
../input/train/Type_2/838.jpeg	43	256	97	256
../input/train/Type_2/714.jpeg	0	256	0	256
../input/train/Type_2/591.jpeg	12	256	62	256
../input/train/Type_2/1368.jpeg	70	256	88	256
../input/train/Type_2/1343.jpeg	0	256	0	256
../input/train/Type_2/115.jpeg	0	256	0	256
../input/train/Type_2/612.jpeg	41	195	46	201
../input/train/Type_2/419.jpeg	133	209	55	105
../input/train/Type_2/1228.jpeg	109	190	137	185
../input/train/Type_2/1038.jpeg	73	156	81	164
../input/train/Type_2/77.jpeg	0	256	0	256
../input/train/Type_2/92.jpeg	0	256	0	256
../input/train/Type_2/2.jpeg	70	256	42	256
../input/train/Type_2/86.jpeg	90	199	80	193
../input/train/Type_2/1066.jpeg	79	157	25	189
../input/train/Type_2/1192.jpeg	5	256	13	256
../input/train/Type_2/1381.jpeg	0	256	0	256
../input/train/Type_2/330.jpeg	163	69	151	63
../input/train/Type_2/1171.jpeg	0	256	0	256
../input/train/Type_2/1001.jpeg	89	256	154	256
../input/train/Type_2/236.jpeg	72	158	37	158
../input/train/Type_2/1175.jpeg	87	181	119	187
../input/train/Type_2/238.jpeg	127	210	52	163
../input/train/Type_2/369.jpeg	101	215	64	161
../input/train/Type_2/644.jpeg	95	183	82	229
../input/train/Type_2/1234.jpeg	116	186	82	160
../input/train/Type_2/398.jpeg	60	256	26	256
../input/train/Type_2/903.jpeg	0	256	0	256
../input/train/Type_2/332.jpeg	73	179	65	155
../input/train/Type_2/847.jpeg	47	256	57	256
../input/train/Type_2/1299.jpeg	75	168	142	222
../input/train/Type_2/639.jpeg	33	90	82	118
../input/train/Type_2/1152.jpeg	96	256	113	256
../input/train/Type_2/1369.jpeg	77	177	64	153
../input/train/Type_2/961.jpeg	97	180	79	178
../input/train/Type_2/633.jpeg	80	128	123	177
../input/train/Type_2/410.jpeg	32	209	43	200
../input/train/Type_2/1181.jpeg	56	131	26	128
../input/train/Type_2/1099.jpeg	65	181	42	137
../input/train/Type_2/1362.jpeg	35	139	10	188
../input/train/Type_2/1441.jpeg	130	195	70	139
../input/train/Type_2/829.jpeg	82	184	133	217
../input/train/Type_2/963.jpeg	53	178	55	208
../input/train/Type_2/1215.jpeg	56	256	25	256
../input/train/Type_2/213.jpeg	139	223	46	141
../input/train/Type_2/1210.jpeg	100	205	78	192
../input/train/Type_2/712.jpeg	85	167	71	176
../input/train/Type_2/691.jpeg	122	173	123	170
../input/train/Type_2/597.jpeg	65	254	70	231
../input/train/Type_2/381.jpeg	83	188	93	188
../input/train/Type_2/974.jpeg	68	256	50	256
../input/train/Type_2/234.jpeg	31	256	58	256
../input/train/Type_2/526.jpeg	83	191	64	175
../input/train/Type_2/40.jpeg	112	181	71	123
../input/train/Type_2/345.jpeg	84	182	101	177
../input/train/Type_2/1319.jpeg	38	198	21	188
../input/train/Type_2/250.jpeg	70	197	62	178
../input/train/Type_2/1169.jpeg	58	210	18	186
../input/train/Type_2/386.jpeg	130	246	110	205
../input/train/Type_2/966.jpeg	44	216	110	189
../input/train/Type_2/940.jpeg	117	205	70	169
../input/train/Type_2/913.jpeg	0	256	0	256
../input/train/Type_2/1176.jpeg	102	238	67	144
../input/train/Type_2/538.jpeg	87	241	59	175
../input/train/Type_2/216.jpeg	7	30	50	76
../input/train/Type_2/1148.jpeg	36	182	40	143
../input/train/Type_2/912.jpeg	92	193	52	137
../input/train/Type_2/1010.jpeg	37	239	62	221
../input/train/Type_2/795.jpeg	71	156	55	131
../input/train/Type_2/904.jpeg	41	235	83	244
../input/train/Type_2/483.jpeg	0	256	0	256
../input/train/Type_2/507.jpeg	80	214	80	203
../input/train/Type_2/726.jpeg	45	219	5	159
../input/train/Type_2/178.jpeg	62	256	53	256
../input/train/Type_2/1067.jpeg	0	256	0	256
../input/train/Type_2/894.jpeg	59	208	133	238
../input/train/Type_2/1051.jpeg	1	189	8	232
../input/train/Type_2/22.jpeg	64	200	64	215
../input/train/Type_2/959.jpeg	67	192	60	177
../input/train/Type_2/408.jpeg	63	180	68	207
../input/train/Type_2/705.jpeg	37	209	37	195
../input/train/Type_2/388.jpeg	99	192	79	172
../input/train/Type_2/883.jpeg	86	177	60	143
../input/train/Type_2/990.jpeg	89	151	57	123
../input/train/Type_2/581.jpeg	0	256	0	256
../input/train/Type_2/37.jpeg	45	181	67	168
../input/train/Type_2/329.jpeg	70	150	68	157
../input/train/Type_2/743.jpeg	58	197	76	196
../input/train/Type_2/271.jpeg	69	162	55	128
../input/train/Type_2/749.jpeg	51	194	22	159
../input/train/Type_2/613.jpeg	62	171	19	215
../input/train/Type_2/305.jpeg	8	243	3	199
../input/train/Type_2/862.jpeg	0	256	0	256
../input/train/Type_2/978.jpeg	56	236	37	217
../input/train/Type_2/1102.jpeg	117	48	122	18
../input/train/Type_2/448.jpeg	109	256	25	256
../input/train/Type_2/1143.jpeg	9	220	9	163
../input/train/Type_2/395.jpeg	8	256	120	256
../input/train/Type_2/235.jpeg	190	45	154	21
../input/train/Type_2/786.jpeg	15	256	60	256
../input/train/Type_2/128.jpeg	100	256	100	256
../input/train/Type_2/673.jpeg	55	256	43	256
../input/train/Type_2/1463.jpeg	60	256	91	256
../input/train/Type_2/655.jpeg	136	184	75	149
../input/train/Type_2/339.jpeg	92	256	41	256
../input/train/Type_2/886.jpeg	86	185	84	181
../input/train/Type_2/1075.jpeg	48	177	50	198
../input/train/Type_2/1225.jpeg	0	256	0	256
../input/train/Type_2/1187.jpeg	39	256	87	256
../input/train/Type_2/112.jpeg	27	256	113	256
../input/train/Type_2/331.jpeg	35	199	42	167
../input/train/Type_2/316.jpeg	31	256	57	256
../input/train/Type_2/432.jpeg	87	256	56	256
../input/train/Type_2/1266.jpeg	7	246	7	203
../input/train/Type_2/1330.jpeg	58	256	47	256
../input/train/Type_2/45.jpeg	94	256	88	256
../input/train/Type_2/279.jpeg	16	256	30	256
../input/train/Type_2/936.jpeg	80	163	33	106
../input/train/Type_2/922.jpeg	22	137	83	189
../input/train/Type_2/100.jpeg	108	256	63	256
../input/train/Type_2/720.jpeg	43	256	56	256
../input/train/Type_2/610.jpeg	0	256	0	256
../input/train/Type_2/981.jpeg	217	79	220	133
../input/train/Type_2/1269.jpeg	0	256	0	256
../input/train/Type_2/844.jpeg	99	184	56	166
../input/train/Type_2/1454.jpeg	86	177	30	138
../input/train/Type_2/4.jpeg	77	185	69	149
../input/train/Type_2/359.jpeg	91	231	9	222
../input/train/Type_2/76.jpeg	129	195	69	121
../input/train/Type_2/1241.jpeg	32	256	90	256
../input/train/Type_2/1054.jpeg	106	256	85	256
../input/train/Type_2/382.jpeg	13	225	38	233
../input/train/Type_2/1068.jpeg	5	256	5	256
../input/train/Type_2/541.jpeg	59	175	39	146
../input/train/Type_2/444.jpeg	68	256	35	256
../input/train/Type_2/274.jpeg	90	139	92	147
../input/train/Type_2/186.jpeg	0	256	0	256
../input/train/Type_2/794.jpeg	52	256	111	256
../input/train/Type_2/973.jpeg	0	256	0	256
../input/train/Type_2/156.jpeg	18	197	62	216
../input/train/Type_2/1301.jpeg	64	256	66	256
../input/train/Type_2/738.jpeg	111	179	68	150
../input/train/Type_2/1233.jpeg	81	177	77	144
../input/train/Type_2/760.jpeg	34	187	60	210
../input/train/Type_2/1073.jpeg	49	149	123	207
../input/train/Type_2/957.jpeg	48	256	39	256
../input/train/Type_2/1074.jpeg	5	248	5	195
../input/train/Type_2/1146.jpeg	35	256	66	256
../input/train/Type_2/1294.jpeg	59	176	68	212
../input/train/Type_2/1433.jpeg	0	256	0	256
../input/train/Type_2/1322.jpeg	8	12	19	35
../input/train/Type_2/935.jpeg	100	256	85	256
../input/train/Type_2/1083.jpeg	96	180	87	198
../input/train/Type_2/285.jpeg	71	137	92	145
../input/train/Type_2/354.jpeg	40	256	58	256
../input/train/Type_2/1467.jpeg	104	179	117	174
../input/train/Type_2/1392.jpeg	100	165	114	156
../input/train/Type_2/74.jpeg	95	256	90	256
../input/train/Type_2/473.jpeg	13	256	16	256
../input/train/Type_2/1006.jpeg	40	256	18	256
../input/train/Type_2/225.jpeg	58	256	61	256
../input/train/Type_2/851.jpeg	57	256	54	256
../input/train/Type_2/1271.jpeg	41	256	74	256
../input/train/Type_2/608.jpeg	41	238	81	239
../input/train/Type_2/854.jpeg	79	148	43	100
../input/train/Type_2/919.jpeg	171	227	84	165
../input/train/Type_2/246.jpeg	45	256	41	256
../input/train/Type_2/21.jpeg	72	256	60	256
../input/train/Type_2/457.jpeg	17	256	49	256
../input/train/Type_2/1465.jpeg	72	256	72	256
../input/train/Type_2/1130.jpeg	68	256	56	256
../input/train/Type_2/449.jpeg	21	256	82	256
../input/train/Type_2/210.jpeg	115	256	18	256
../input/train/Type_2/1035.jpeg	92	256	60	256
../input/train/Type_2/80.jpeg	108	256	34	256
../input/train/Type_2/1466.jpeg	102	159	83	121
../input/train/Type_2/1.jpeg	103	256	137	256
../input/train/Type_2/976.jpeg	40	198	36	217
../input/train/Type_2/64.jpeg	13	185	16	208
../input/train/Type_2/1117.jpeg	56	107	106	163
../input/train/Type_2/956.jpeg	84	184	70	161
../input/train/Type_2/1116.jpeg	68	256	47	256
../input/train/Type_2/896.jpeg	0	256	0	256
../input/train/Type_2/816.jpeg	76	191	52	165
../input/train/Type_2/545.jpeg	9	256	50	256
../input/train/Type_2/666.jpeg	32	256	105	256
../input/train/Type_2/428.jpeg	59	167	75	154
../input/train/Type_2/911.jpeg	84	141	95	152
../input/train/Type_2/31.jpeg	1	244	20	237
../input/train/Type_2/1398.jpeg	0	256	0	256
../input/train/Type_2/884.jpeg	109	256	63	256
../input/train/Type_2/772.jpeg	0	256	0	256
../input/train/Type_2/251.jpeg	59	256	65	256
../input/train/Type_2/1002.jpeg	9	256	82	256
../input/train/Type_2/537.jpeg	59	256	50	256
../input/train/Type_2/368.jpeg	19	256	88	256
../input/train/Type_2/586.jpeg	87	170	60	106
../input/train/Type_2/722.jpeg	55	256	79	256
../input/train/Type_2/42.jpeg	0	256	0	256
../input/train/Type_2/574.jpeg	23	193	93	234
../input/train/Type_2/1310.jpeg	71	256	99	256
../input/train/Type_2/556.jpeg	15	256	99	256
../input/train/Type_2/8.jpeg	50	256	47	256
../input/train/Type_2/831.jpeg	12	175	70	220
../input/train/Type_2/301.jpeg	106	256	98	256
../input/train/Type_2/219.jpeg	4	256	80	256
../input/train/Type_2/564.jpeg	74	256	127	256
../input/train/Type_2/601.jpeg	31	202	57	165
../input/train/Type_2/44.jpeg	0	256	0	256
../input/train/Type_2/487.jpeg	75	194	76	181
../input/train/Type_2/595.jpeg	252	109	219	91
../input/train/Type_2/1371.jpeg	0	256	0	256
../input/train/Type_2/1391.jpeg	80	256	118	256
../input/train/Type_2/1257.jpeg	15	76	52	97
../input/train/Type_2/1145.jpeg	63	256	79	256
../input/train/Type_2/456.jpeg	38	256	58	256
../input/train/Type_2/9.jpeg	97	256	69	256
../input/train/Type_2/678.jpeg	85	201	69	185
../input/train/Type_2/1212.jpeg	80	256	56	256
../input/train/Type_2/946.jpeg	62	256	63	256
../input/train/Type_2/648.jpeg	107	256	101	256
../input/train/Type_2/223.jpeg	0	256	0	256
../input/train/Type_2/296.jpeg	60	256	73	256
../input/train/Type_2/445.jpeg	92	216	64	203
../input/train/Type_2/971.jpeg	41	230	41	172
../input/train/Type_2/103.jpeg	56	256	45	256
../input/train/Type_2/1016.jpeg	23	199	24	209
../input/train/Type_2/1331.jpeg	76	190	56	209
../input/train/Type_2/1376.jpeg	0	256	0	256
../input/train/Type_2/291.jpeg	58	256	42	256
../input/train/Type_2/827.jpeg	127	44	155	85
../input/train/Type_2/209.jpeg	78	195	75	170
../input/train/Type_2/485.jpeg	3	256	44	256
../input/train/Type_2/1047.jpeg	84	196	25	132
../input/train/Type_2/681.jpeg	0	256	0	256
../input/train/Type_2/1378.jpeg	36	228	59	180
../input/train/Type_2/317.jpeg	41	199	30	151
../input/train/Type_2/656.jpeg	46	171	44	167
../input/train/Type_2/378.jpeg	0	256	0	256
../input/train/Type_2/6.jpeg	0	256	0	256
../input/train/Type_2/686.jpeg	80	197	47	156
../input/train/Type_2/46.jpeg	58	216	66	192
../input/train/Type_2/1290.jpeg	91	162	126	216
../input/train/Type_2/1216.jpeg	52	211	43	183
../input/train/Type_2/674.jpeg	95	187	121	206
../input/train/Type_2/297.jpeg	110	222	90	192
../input/train/Type_2/288.jpeg	1	197	8	238
../input/train/Type_2/1091.jpeg	30	209	11	214
../input/train/Type_2/348.jpeg	69	197	33	145
../input/train/Type_2/932.jpeg	44	256	83	256
../input/train/Type_2/167.jpeg	90	197	62	142
../input/train/Type_2/815.jpeg	10	166	39	210
../input/train/Type_2/843.jpeg	63	190	55	194
../input/train/Type_2/452.jpeg	0	256	0	256
../input/train/Type_2/1302.jpeg	39	256	49	256
../input/train/Type_2/474.jpeg	0	256	0	256
../input/train/Type_2/43.jpeg	8	127	111	178
../input/train/Type_2/687.jpeg	89	256	77	256
../input/train/Type_2/1089.jpeg	3	256	80	256
../input/train/Type_2/503.jpeg	0	256	0	256
../input/train/Type_2/572.jpeg	86	256	109	256
../input/train/Type_2/472.jpeg	8	256	40	256
../input/train/Type_2/1243.jpeg	119	256	133	256
../input/train/Type_2/394.jpeg	75	256	95	256
../input/train/Type_2/729.jpeg	64	256	46	256
../input/train/Type_2/1173.jpeg	62	87	61	106
../input/train/Type_2/1185.jpeg	75	242	37	193
../input/train/Type_2/874.jpeg	40	256	38	256
../input/train/Type_2/1109.jpeg	26	256	54	256
../input/train/Type_2/618.jpeg	82	185	65	178
../input/train/Type_2/79.jpeg	14	256	11	256
../input/train/Type_2/312.jpeg	0	256	0	256
../input/train/Type_2/1406.jpeg	0	256	0	256
../input/train/Type_2/314.jpeg	35	256	59	256
../input/train/Type_2/67.jpeg	50	213	113	217
../input/train/Type_2/1435.jpeg	40	220	34	105
../input/train/Type_2/65.jpeg	61	256	53	256
../input/train/Type_2/240.jpeg	0	256	0	256
../input/train/Type_2/671.jpeg	97	206	65	113
../input/train/Type_2/184.jpeg	194	48	157	31
../input/train/Type_2/1352.jpeg	79	256	91	256
../input/train/Type_2/1438.jpeg	32	256	25	256
../input/train/Type_2/611.jpeg	67	256	102	256
../input/train/Type_2/680.jpeg	134	191	50	112
../input/train/Type_2/283.jpeg	48	256	87	256
../input/train/Type_2/1395.jpeg	71	186	57	205
../input/train/Type_2/1329.jpeg	68	256	58	256
../input/train/Type_2/1104.jpeg	63	256	104	256
../input/train/Type_2/1255.jpeg	81	256	47	256
../input/train/Type_2/1021.jpeg	56	256	51	256
../input/train/Type_2/540.jpeg	49	256	39	256
../input/train/Type_2/1407.jpeg	87	173	74	171
../input/train/Type_2/858.jpeg	60	256	89	256
../input/train/Type_2/1138.jpeg	86	256	74	256
../input/train/Type_2/1421.jpeg	49	256	104	256
../input/train/Type_2/997.jpeg	71	256	85	256
../input/train/Type_2/753.jpeg	57	116	62	134
../input/train/Type_2/341.jpeg	55	139	39	110
../input/train/Type_2/1115.jpeg	4	256	46	256
../input/train/Type_2/1227.jpeg	17	230	39	235
../input/train/Type_2/366.jpeg	72	174	84	181
../input/train/Type_2/1262.jpeg	37	210	29	182
../input/train/Type_2/315.jpeg	2	204	8	156
../input/train/Type_2/659.jpeg	0	256	0	256
../input/train/Type_2/1085.jpeg	10	256	19	256
../input/train/Type_2/1065.jpeg	5	226	8	245
../input/train/Type_2/533.jpeg	100	192	47	142
